<?xml version="1.0" encoding="UTF-8" standalone="no"?>
<svg xmlns:rdf="http://www.w3.org/1999/02/22-rdf-syntax-ns#" xmlns="http://www.w3.org/2000/svg" version="1.1" xmlns:cc="http://creativecommons.org/ns#" xmlns:dc="http://purl.org/dc/elements/1.1/" viewBox="0 0 32 32">
 <path d="m19.744 31.264c9.4278-2.0986 8.0647-10.789 8.0647-10.789h-2.5773c1.5105 7.2912-5.5239 10.163-5.5239 10.163l0.03647 0.62609zm9.4278-11.712s1.3631 9.7956-8.6528 12.447h-7.9918s-11.048-1.8053-9.6482-12.447h26.293zm2.5788-2.7247c0 1.6564-1.5455 1.9512-1.5455 1.9512h-28.762s-1.2522-0.07294-1.2522-1.9512 1.509-1.7689 1.509-1.7689h28.209s1.8418 0.11093 1.8418 1.7689zm-23.624-2.798-3.4071-5.5788l2.708-2.3949 6.9417 7.9735h-6.2411zm4.8613-6.2976s1.0303 2.1913 2.3372 2.8174l0.1474 0.42246s-2.9466 0.05471-3.793-1.6944c-0.84644-1.7491-0.58962-3.6456-0.27657-5.0087 0 0 1.6382 2.0257 2.9466 2.5591 1.3084 0.53339 1.8236 1.4558 1.9147 1.9512 0.0927 0.49692-0.29481 1.2522-0.29481 1.2522s-2.0257-0.66256-2.983-2.3007zm11.488 5.8187s-6.0026 1.474-7.9173-0.22035c0 0-0.05623-0.90114 0.46045-0.86467 0 0 1.3798 0.01824 2.7992-0.86467 1.4193-0.88291 6.7396-4.0878 9.1695-7.6043 0 0-4.878 4.2899-10.955 7.0891 0 0-1.1412 0.09118-1.3084 0.55163 0 0-0.29481 0.40574-0.62609 0.22187 0 0 0.20211-2.8539 1.5652-4.7686s3.2961-3.7383 9.557-4.1608c0 0 3.793-0.66256 4.0331-2.7247 0 0 0.22187-0.46045 0.47868 0 0.25682 0.46045 0.29329 10.881-7.2563 13.347z"/>
</svg>
